example/example/wave.vcd
$date
     Oct 06, 2018       14:38:24
$end

$version
 SystemC 2.3.2-Accellera --- Sep 23 2018 10:56:24
$end

$timescale
     1 ps
$end

$scope module SystemC $end
$var wire    1  aaaaa  clk       $end
$var wire    1  aaaab  reset       $end
$var wire    8  aaaac  seconds [7:0]  $end
$var wire    1  aaaad  tc       $end
$upscope $end
$enddefinitions  $end

$comment
All initial values are dumped below at time 0 sec = 0 timescale units.
$end

$dumpvars
1aaaaa
0aaaab
b0 aaaac
0aaaad
$end

#500
0aaaaa

#1000
1aaaaa

#1500
0aaaaa

#2000
1aaaaa
1aaaab
b1 aaaac

#2500
0aaaaa

#3000
1aaaaa
b10 aaaac

#3500
0aaaaa

#4000
1aaaaa
b11 aaaac

#4500
0aaaaa

#5000
1aaaaa
b100 aaaac

#5500
0aaaaa

#6000
1aaaaa
b101 aaaac

#6500
0aaaaa

#7000
1aaaaa
b110 aaaac

#7500
0aaaaa

#8000
1aaaaa
b111 aaaac

#8500
0aaaaa

#9000
1aaaaa
b1000 aaaac

#9500
0aaaaa

#10000
1aaaaa
b1001 aaaac

#10500
0aaaaa

#11000
1aaaaa
b1010 aaaac

#11500
0aaaaa

#12000
1aaaaa
b1011 aaaac

#12500
0aaaaa

#13000
1aaaaa
b1100 aaaac

#13500
0aaaaa

#14000
1aaaaa
b1101 aaaac

#14500
0aaaaa

#15000
1aaaaa
b1110 aaaac

#15500
0aaaaa

#16000
1aaaaa
b1111 aaaac

#16500
0aaaaa

#17000
1aaaaa
b10000 aaaac

#17500
0aaaaa

#18000
1aaaaa
b10001 aaaac

#18500
0aaaaa

#19000
1aaaaa
b10010 aaaac

#19500
0aaaaa

#20000
1aaaaa
b10011 aaaac

#20500
0aaaaa

#21000
1aaaaa
b10100 aaaac

#21500
0aaaaa

#22000
1aaaaa
b10101 aaaac

#22500
0aaaaa

#23000
1aaaaa
b10110 aaaac

#23500
0aaaaa

#24000
1aaaaa
b10111 aaaac

#24500
0aaaaa

#25000
1aaaaa
b11000 aaaac

#25500
0aaaaa

#26000
1aaaaa
b11001 aaaac

#26500
0aaaaa

#27000
1aaaaa
b11010 aaaac

#27500
0aaaaa

#28000
1aaaaa
b11011 aaaac

#28500
0aaaaa

#29000
1aaaaa
b11100 aaaac

#29500
0aaaaa

#30000
1aaaaa
b11101 aaaac

#30500
0aaaaa

#31000
1aaaaa
b11110 aaaac

#31500
0aaaaa

#32000
1aaaaa
b11111 aaaac

#32500
0aaaaa

#33000
1aaaaa
b100000 aaaac

#33500
0aaaaa

#34000
1aaaaa
b100001 aaaac

#34500
0aaaaa

#35000
1aaaaa
b100010 aaaac

#35500
0aaaaa

#36000
1aaaaa
b100011 aaaac

#36500
0aaaaa

#37000
1aaaaa
b100100 aaaac

#37500
0aaaaa

#38000
1aaaaa
b100101 aaaac

#38500
0aaaaa

#39000
1aaaaa
b100110 aaaac

#39500
0aaaaa

#40000
1aaaaa
b100111 aaaac

#40500
0aaaaa

#41000
1aaaaa
b101000 aaaac

#41500
0aaaaa

#42000
1aaaaa
b101001 aaaac

#42500
0aaaaa

#43000
1aaaaa
b101010 aaaac

#43500
0aaaaa

#44000
1aaaaa
b101011 aaaac

#44500
0aaaaa

#45000
1aaaaa
b101100 aaaac

#45500
0aaaaa

#46000
1aaaaa
b101101 aaaac

#46500
0aaaaa

#47000
1aaaaa
b101110 aaaac

#47500
0aaaaa

#48000
1aaaaa
b101111 aaaac

#48500
0aaaaa

#49000
1aaaaa
b110000 aaaac

#49500
0aaaaa

#50000
1aaaaa
b110001 aaaac

#50500
0aaaaa

#51000
1aaaaa
b110010 aaaac

#51500
0aaaaa

#52000
1aaaaa
b110011 aaaac

#52500
0aaaaa

#53000
1aaaaa
b110100 aaaac

#53500
0aaaaa

#54000
1aaaaa
b110101 aaaac

#54500
0aaaaa

#55000
1aaaaa
b110110 aaaac

#55500
0aaaaa

#56000
1aaaaa
b110111 aaaac

#56500
0aaaaa

#57000
1aaaaa
b111000 aaaac

#57500
0aaaaa

#58000
1aaaaa
b111001 aaaac

#58500
0aaaaa

#59000
1aaaaa
b111010 aaaac

#59500
0aaaaa

#60000
1aaaaa
b111011 aaaac
1aaaad

#60500
0aaaaa

#61000
1aaaaa
b0 aaaac
0aaaad

#61500
0aaaaa

#62000
1aaaaa
b1 aaaac

#62500
0aaaaa

#63000
1aaaaa
b10 aaaac

#63500
0aaaaa

#64000
1aaaaa
b11 aaaac

#64500
0aaaaa

#65000
1aaaaa
b100 aaaac

#65500
0aaaaa

#66000
1aaaaa
b101 aaaac

#66500
0aaaaa

#67000
1aaaaa
b110 aaaac

#67500
0aaaaa

#68000
1aaaaa
b111 aaaac

#68500
0aaaaa

#69000
1aaaaa
b1000 aaaac

#69500
0aaaaa

#70000
1aaaaa
b1001 aaaac

#70500
0aaaaa

#71000
1aaaaa
b1010 aaaac

#71500
0aaaaa

#72000
1aaaaa
b1011 aaaac

#72500
0aaaaa

#73000
1aaaaa
b1100 aaaac

#73500
0aaaaa

#74000
1aaaaa
b1101 aaaac

#74500
0aaaaa

#75000
1aaaaa
b1110 aaaac

#75500
0aaaaa

#76000
1aaaaa
b1111 aaaac

#76500
0aaaaa

#77000
1aaaaa
b10000 aaaac

#77500
0aaaaa

#78000
1aaaaa
b10001 aaaac

#78500
0aaaaa

#79000
1aaaaa
b10010 aaaac

#79500
0aaaaa

#80000
1aaaaa
b10011 aaaac

#80500
0aaaaa

#81000
1aaaaa
b10100 aaaac

#81500
0aaaaa

#82000
1aaaaa
b10101 aaaac

#82500
0aaaaa

#83000
1aaaaa
b10110 aaaac

#83500
0aaaaa

#84000
1aaaaa
b10111 aaaac

#84500
0aaaaa

#85000
1aaaaa
b11000 aaaac

#85500
0aaaaa

#86000
1aaaaa
b11001 aaaac

#86500
0aaaaa

#87000
1aaaaa
b11010 aaaac

#87500
0aaaaa

#88000
1aaaaa
b11011 aaaac

#88500
0aaaaa

#89000
1aaaaa
b11100 aaaac

#89500
0aaaaa

#90000
1aaaaa
b11101 aaaac

#90500
0aaaaa

#91000
1aaaaa
b11110 aaaac

#91500
0aaaaa

#92000
1aaaaa
b11111 aaaac

#92500
0aaaaa

#93000
1aaaaa
b100000 aaaac

#93500
0aaaaa

#94000
1aaaaa
b100001 aaaac

#94500
0aaaaa

#95000
1aaaaa
b100010 aaaac

#95500
0aaaaa

#96000
1aaaaa
b100011 aaaac

#96500
0aaaaa

#97000
1aaaaa
b100100 aaaac

#97500
0aaaaa

#98000
1aaaaa
b100101 aaaac

#98500
0aaaaa

#99000
1aaaaa
b100110 aaaac

#99500
0aaaaa

#100000
1aaaaa
b100111 aaaac

#100500
0aaaaa

#101000
1aaaaa
b101000 aaaac

#101500
0aaaaa

#102000
1aaaaa
b101001 aaaac

#102500
0aaaaa

#103000
1aaaaa
b101010 aaaac

#103500
0aaaaa

#104000
1aaaaa
b101011 aaaac

#104500
0aaaaa

#105000
1aaaaa
b101100 aaaac

#105500
0aaaaa

#106000
1aaaaa
b101101 aaaac

#106500
0aaaaa

#107000
1aaaaa
b101110 aaaac

#107500
0aaaaa

#108000
1aaaaa
b101111 aaaac

#108500
0aaaaa

#109000
1aaaaa
b110000 aaaac

#109500
0aaaaa

#110000
1aaaaa
b110001 aaaac

#110500
0aaaaa

#111000
1aaaaa
b110010 aaaac

#111500
0aaaaa

#112000
1aaaaa
b110011 aaaac

#112500
0aaaaa

#113000
1aaaaa
b110100 aaaac

#113500
0aaaaa

#114000
1aaaaa
b110101 aaaac

#114500
0aaaaa

#115000
1aaaaa
b110110 aaaac

#115500
0aaaaa

#116000
1aaaaa
b110111 aaaac

#116500
0aaaaa

#117000
1aaaaa
b111000 aaaac

#117500
0aaaaa

#118000
1aaaaa
b111001 aaaac

#118500
0aaaaa

#119000
1aaaaa
b111010 aaaac

#119500
0aaaaa

#120000
1aaaaa
b111011 aaaac
1aaaad

#120500
0aaaaa

#121000
1aaaaa
b0 aaaac
0aaaad

#121500
0aaaaa

#122000
1aaaaa
b1 aaaac

#122500
0aaaaa

#123000
1aaaaa
b10 aaaac

#123500
0aaaaa

#124000
1aaaaa
b11 aaaac

#124500
0aaaaa

#125000
1aaaaa
b100 aaaac

#125500
0aaaaa

#126000
1aaaaa
b101 aaaac

#126500
0aaaaa

#127000
1aaaaa
b110 aaaac

#127500
0aaaaa

#128000
1aaaaa
b111 aaaac

#128500
0aaaaa

#129000
1aaaaa
b1000 aaaac

#129500
0aaaaa

#130000
1aaaaa
b1001 aaaac

#130500
0aaaaa

#131000
1aaaaa
b1010 aaaac

#131500
0aaaaa

#132000
1aaaaa
b1011 aaaac

#132500
0aaaaa

#133000
1aaaaa
b1100 aaaac

#133500
0aaaaa

#134000
1aaaaa
b1101 aaaac

#134500
0aaaaa

#135000
1aaaaa
b1110 aaaac

#135500
0aaaaa

#136000
1aaaaa
b1111 aaaac

#136500
0aaaaa

#137000
1aaaaa
b10000 aaaac

#137500
0aaaaa

#138000
1aaaaa
b10001 aaaac

#138500
0aaaaa

#139000
1aaaaa
b10010 aaaac

#139500
0aaaaa

#140000
1aaaaa
b10011 aaaac

#140500
0aaaaa

#141000
1aaaaa
b10100 aaaac

#141500
0aaaaa

#142000
1aaaaa
b10101 aaaac

#142500
0aaaaa

#143000
1aaaaa
b10110 aaaac

#143500
0aaaaa

#144000
1aaaaa
b10111 aaaac

#144500
0aaaaa

#145000
1aaaaa
b11000 aaaac

#145500
0aaaaa

#146000
1aaaaa
b11001 aaaac

#146500
0aaaaa

#147000
1aaaaa
b11010 aaaac

#147500
0aaaaa

#148000
1aaaaa
b11011 aaaac

#148500
0aaaaa

#149000
1aaaaa
b11100 aaaac

#149500
0aaaaa

#150000
1aaaaa
b11101 aaaac

#150500
0aaaaa

#151000
1aaaaa
b11110 aaaac

#151500
0aaaaa

#152000
1aaaaa
b11111 aaaac

#152500
0aaaaa

#153000
1aaaaa
b100000 aaaac

#153500
0aaaaa

#154000
1aaaaa
b100001 aaaac

#154500
0aaaaa

#155000
1aaaaa
b100010 aaaac

#155500
0aaaaa

#156000
1aaaaa
b100011 aaaac

#156500
0aaaaa

#157000
1aaaaa
b100100 aaaac

#157500
0aaaaa

#158000
1aaaaa
b100101 aaaac

#158500
0aaaaa

#159000
1aaaaa
b100110 aaaac

#159500
0aaaaa

#160000
1aaaaa
b100111 aaaac

#160500
0aaaaa

#161000
1aaaaa
b101000 aaaac

#161500
0aaaaa

#162000
1aaaaa
b101001 aaaac

#162500
0aaaaa

#163000
1aaaaa
b101010 aaaac

#163500
0aaaaa

#164000
1aaaaa
b101011 aaaac

#164500
0aaaaa

#165000
1aaaaa
b101100 aaaac

#165500
0aaaaa

#166000
1aaaaa
b101101 aaaac

#166500
0aaaaa

#167000
1aaaaa
b101110 aaaac

#167500
0aaaaa

#168000
1aaaaa
b101111 aaaac

#168500
0aaaaa

#169000
1aaaaa
b110000 aaaac

#169500
0aaaaa

#170000
1aaaaa
b110001 aaaac

#170500
0aaaaa

#171000
1aaaaa
b110010 aaaac

#171500
0aaaaa

#172000
1aaaaa
b110011 aaaac

#172500
0aaaaa

#173000
1aaaaa
b110100 aaaac

#173500
0aaaaa

#174000
1aaaaa
b110101 aaaac

#174500
0aaaaa

#175000
1aaaaa
b110110 aaaac

#175500
0aaaaa

#176000
1aaaaa
b110111 aaaac

#176500
0aaaaa

#177000
1aaaaa
b111000 aaaac

#177500
0aaaaa

#178000
1aaaaa
b111001 aaaac

#178500
0aaaaa

#179000
1aaaaa
b111010 aaaac

#179500
0aaaaa

#180000
1aaaaa
b111011 aaaac
1aaaad

#180500
0aaaaa

#181000
1aaaaa
b0 aaaac
0aaaad

#181500
0aaaaa

#182000
1aaaaa
b1 aaaac

#182500
0aaaaa

#183000
1aaaaa
b10 aaaac

#183500
0aaaaa

#184000
1aaaaa
b11 aaaac

#184500
0aaaaa

#185000
1aaaaa
b100 aaaac

#185500
0aaaaa

#186000
1aaaaa
b101 aaaac

#186500
0aaaaa

#187000
1aaaaa
b110 aaaac

#187500
0aaaaa

#188000
1aaaaa
b111 aaaac

#188500
0aaaaa

#189000
1aaaaa
b1000 aaaac

#189500
0aaaaa

#190000
1aaaaa
b1001 aaaac

#190500
0aaaaa

#191000
1aaaaa
b1010 aaaac

#191500
0aaaaa

#192000
1aaaaa
b1011 aaaac

#192500
0aaaaa

#193000
1aaaaa
b1100 aaaac

#193500
0aaaaa

#194000
1aaaaa
b1101 aaaac

#194500
0aaaaa

#195000
1aaaaa
b1110 aaaac

#195500
0aaaaa

#196000
1aaaaa
b1111 aaaac

#196500
0aaaaa

#197000
1aaaaa
b10000 aaaac

#197500
0aaaaa

#198000
1aaaaa
b10001 aaaac

#198500
0aaaaa

#199000
1aaaaa
b10010 aaaac

#199500
0aaaaa

#200000
1aaaaa
b10011 aaaac

#200500
0aaaaa

#201000
1aaaaa
b10100 aaaac

